<svg width="103" height="90" viewBox="0 0 103 90" fill="none" xmlns="http://www.w3.org/2000/svg">
<circle cx="39" cy="39" r="39" fill="url(#paint0_linear)" style="mix-blend-mode:multiply"/>
<path d="M37.4739 20.3226L65.8408 24.1226C65.8939 24.129 65.9469 24.1327 66 24.1327C66.053 24.1327 66.1061 24.1288 66.1591 24.1226L93.1336 20.5087V24.9066C92.3604 25.7996 90.6669 28.0277 90.6669 30.4661C90.6669 33.2541 92.8795 34.2661 94.3669 34.2661C95.8543 34.2661 98.0669 33.2541 98.0669 30.4661C98.0669 28.0277 96.3736 25.7996 95.6002 24.9066V19.066C95.6002 18.8989 95.5657 18.7405 95.5077 18.5935C95.4867 18.5416 95.4509 18.5011 95.4239 18.453C95.3758 18.3644 95.3276 18.2769 95.2611 18.2034C95.2179 18.1565 95.1662 18.1249 95.1169 18.0869C95.0466 18.0286 94.9776 17.9729 94.8962 17.9324C94.8358 17.902 94.7716 17.8894 94.7063 17.8704C94.6459 17.8514 94.5915 17.8184 94.5262 17.8095L66.1592 14.0095C66.0532 13.9968 65.9471 13.9968 65.841 14.0095L37.474 17.8095C36.8598 17.8919 36.3999 18.4301 36.3999 19.066C36.3996 19.7019 36.8596 20.2403 37.4739 20.3226ZM95.6001 30.4661C95.6001 31.477 94.9328 31.7137 94.3668 31.7327C93.8006 31.7137 93.1335 31.4768 93.1335 30.4661C93.1335 29.4147 93.7625 28.2418 94.3668 27.3767C94.9711 28.2419 95.6001 29.4149 95.6001 30.4661ZM65.9998 16.5429L84.8317 19.066L65.9998 21.5893L47.168 19.066L65.9998 16.5429Z" fill="white"/>
<path d="M73.3997 51.9995C75.891 51.9995 77.9371 50.0856 78.2652 47.6169L82.773 44.1462C83.3182 43.7269 83.4292 42.9327 83.0197 42.3728C82.6114 41.8129 81.8382 41.6977 81.293 42.1194L78.1493 44.5414C77.6794 42.9973 76.2906 41.8662 74.633 41.8662H69.6996C67.6597 41.8662 65.9996 43.5712 65.9996 45.6662C65.9996 43.5712 64.3395 41.8662 62.2996 41.8662H57.3663C55.7086 41.8662 54.32 42.9973 53.8499 44.5414L50.7062 42.1194C50.1623 41.7001 49.3878 41.8141 48.9795 42.3728C48.57 42.9327 48.681 43.7269 49.2262 44.1462L53.734 47.6169C54.0621 50.0856 56.107 51.9995 58.5996 51.9995H61.0663C63.7871 51.9995 65.9996 49.7271 65.9996 46.9329C65.9996 49.7272 68.2123 51.9995 70.9329 51.9995H73.3997ZM63.5329 46.9329C63.5329 48.33 62.4253 49.4663 61.0661 49.4663H58.5994C57.2391 49.4663 56.1327 48.3301 56.1327 46.9329V45.6662C56.1327 44.9683 56.6852 44.3996 57.366 44.3996H62.2993C62.98 44.3996 63.5326 44.9683 63.5326 45.6662V46.9329H63.5329ZM68.4663 46.9329V45.6662C68.4663 44.9683 69.0189 44.3996 69.6996 44.3996H74.633C75.3137 44.3996 75.8663 44.9683 75.8663 45.6662V46.9329C75.8663 48.33 74.76 49.4663 73.3995 49.4663H70.9328C69.5726 49.4661 68.4663 48.33 68.4663 46.9329Z" fill="white"/>
<path d="M85.6829 78.2894C85.6595 78.1994 85.6225 78.1184 85.5817 78.0348C85.5583 77.9904 85.5534 77.9398 85.5262 77.8968C85.5126 77.8778 85.493 77.8677 85.4794 77.8487C85.4277 77.779 85.3635 77.722 85.2968 77.6637C85.2376 77.608 85.1796 77.5536 85.1094 77.5129C85.0884 77.4989 85.0762 77.4788 85.0526 77.466L80.1193 74.9339C79.7221 74.73 79.2509 74.7604 78.8835 75.0124L71.4821 80.0791C71.1393 80.3135 70.9334 80.71 70.9334 81.133V85.6246C70.1996 86.2276 68.3977 87.4663 66 87.4663C63.6258 87.4663 61.8067 86.2212 61.0667 85.6208V81.1329C61.0667 80.7098 60.8608 80.3133 60.5179 80.079L53.1179 75.0123C52.7503 74.7602 52.2791 74.7298 51.8821 74.9338L46.9488 77.4658C46.9265 77.4773 46.9142 77.4975 46.8946 77.5102C46.8206 77.5533 46.7589 77.6103 46.696 77.6698C46.6343 77.7256 46.5727 77.7787 46.5246 77.8447C46.5098 77.865 46.4876 77.8763 46.474 77.8966C46.4444 77.9422 46.4395 77.9941 46.416 78.0422C46.3777 78.1221 46.3407 78.1993 46.3186 78.2854C46.2988 78.3652 46.2939 78.4412 46.289 78.5223C46.2841 78.6021 46.2803 78.6793 46.2903 78.7604C46.3001 78.849 46.3286 78.93 46.3569 79.0138C46.3741 79.0644 46.373 79.1177 46.3964 79.1658C46.4075 79.1886 46.4285 79.2024 46.4408 79.2241C46.4815 79.2976 46.537 79.3596 46.5937 79.4242C46.6492 79.4876 46.7009 79.5508 46.7651 79.6016C46.7849 79.6167 46.7959 79.6396 46.8157 79.6535L54.2157 84.7202C54.4266 84.8646 54.6646 84.933 54.8989 84.933C55.2973 84.933 55.6895 84.7355 55.9263 84.3694C56.3049 83.7868 56.152 83.0001 55.5846 82.6125L49.9519 78.7568L52.3446 77.5282L58.6001 81.8108V86.1998C58.6001 86.5354 58.7296 86.8584 58.9615 87.0953C59.0774 87.2144 61.8376 89.9998 66.0002 89.9998C70.1627 89.9998 72.923 87.2144 73.0389 87.0953C73.2696 86.8584 73.4002 86.5354 73.4002 86.1998V81.8108L79.657 77.5282L82.0485 78.7556L76.4158 82.6127C75.8485 83.0002 75.6956 83.7868 76.0741 84.3696C76.3108 84.7356 76.7031 84.9332 77.1014 84.9332C77.3357 84.9332 77.5738 84.8648 77.7846 84.7203L85.1847 79.6537C85.2045 79.6397 85.2143 79.6182 85.2328 79.6042C85.3019 79.5511 85.3561 79.4852 85.4141 79.4181C85.4658 79.3547 85.5189 79.2977 85.5583 79.2268C85.5706 79.2039 85.5928 79.1901 85.604 79.1659C85.6299 79.114 85.6299 79.0583 85.6472 79.005C85.6731 78.9251 85.7002 78.8491 85.7101 78.7656C85.7212 78.6795 85.7174 78.5984 85.7114 78.5135C85.7063 78.4377 85.7026 78.3654 85.6829 78.2894Z" fill="white"/>
<path d="M90.7549 74.0042C90.9486 74.4982 91.4111 74.7997 91.9006 74.7997C92.0535 74.7997 92.2078 74.7706 92.3582 74.7086C92.991 74.4501 93.298 73.713 93.0465 73.0631C93.0218 73.0023 90.6673 66.8704 90.6673 60.8664V50.7329C90.6673 39.9408 85.2813 37.0515 85.052 36.9338C84.6708 36.7374 84.2157 36.7564 83.8532 36.9882C83.4894 37.2201 83.2674 37.6267 83.2674 38.0662V43.1328C83.2674 47.9234 79.6982 57.7643 78.4636 60.3001C77.3573 62.5737 71.5038 69.7331 66.0007 69.7331C60.4976 69.7331 54.6441 62.5739 53.5365 60.3001C52.3032 57.7642 48.7339 47.9234 48.7339 43.1328V38.0662C48.7339 37.6267 48.5119 37.2201 48.1481 36.9882C47.7843 36.7564 47.3303 36.7374 46.9493 36.9338C46.7199 37.0516 41.3339 39.9408 41.3339 50.7329V60.8664C41.3339 66.8704 38.9795 73.0024 38.9548 73.0631C38.7032 73.713 39.0103 74.4501 39.6431 74.7086C40.2734 74.967 40.9936 74.6529 41.2464 74.0042C41.35 73.7357 43.8005 67.3693 43.8005 60.8662V50.7328C43.8005 45.5963 45.1042 42.6121 46.2673 40.9705V43.1327C46.2673 48.5693 50.151 59.0104 51.3301 61.4324C52.8311 64.5154 59.3999 72.2663 66.0007 72.2663C72.6015 72.2663 79.1704 64.5154 80.67 61.4324C81.8503 59.0104 85.7342 48.5693 85.7342 43.1327V40.9731C86.8997 42.616 88.2009 45.599 88.2009 50.7328V60.8662C88.2006 67.3693 90.6513 73.7357 90.7549 74.0042Z" fill="white"/>
<path d="M68.8421 59.957C68.8027 59.9937 67.8728 60.8665 65.9993 60.8665C64.1531 60.8665 63.223 60.0191 63.159 59.9583C62.6793 59.4758 61.9059 59.4795 61.4273 59.971C60.945 60.4663 60.945 61.2668 61.4273 61.762C61.5901 61.9292 63.1046 63.3999 65.9993 63.3999C68.894 63.3999 70.4086 61.9293 70.5713 61.762C71.0474 61.2731 71.0461 60.4903 70.5787 59.9937C70.1088 59.4973 69.3343 59.4833 68.8421 59.957Z" fill="white"/>
<path d="M102.936 88.3327C102.828 87.9958 100.137 80.0423 89.7323 77.371C89.0712 77.1987 88.4027 77.6141 88.2375 78.2919C88.0723 78.9709 88.4743 79.6586 89.1354 79.8284C98.1721 82.1489 100.504 88.8548 100.598 89.1334C100.77 89.6642 101.251 89.9999 101.767 89.9999C101.896 89.9999 102.028 89.9795 102.157 89.9353C102.803 89.7134 103.152 88.9966 102.936 88.3327Z" fill="white"/>
<path d="M85.7339 32.9997V24.133C85.7339 23.4339 85.1827 22.8664 84.5006 22.8664C83.8186 22.8664 83.2673 23.4339 83.2673 24.133V32.1802C81.2274 33.0681 74.772 35.5331 66.0005 35.5331C57.2289 35.5331 50.7736 33.0681 48.7336 32.1802V24.133C48.7336 23.4339 48.1824 22.8664 47.5003 22.8664C46.8183 22.8664 46.267 23.4339 46.267 24.133V32.9997C46.267 33.4798 46.5309 33.9181 46.9491 34.1333C47.2623 34.2929 54.7389 38.0664 66.0005 38.0664C77.262 38.0664 84.7387 34.2929 85.0519 34.1333C85.47 33.9181 85.7339 33.4798 85.7339 32.9997Z" fill="white"/>
<path d="M42.268 77.371C31.8636 80.0424 29.1724 87.9959 29.0638 88.3327C28.848 88.9964 29.1971 89.7134 29.8433 89.9351C29.9728 89.9795 30.1036 89.9997 30.2331 89.9997C30.7498 89.9997 31.2308 89.6641 31.4024 89.1333C31.4258 89.0636 33.7606 82.1653 42.8651 79.8282C43.5262 79.6586 43.9283 78.9707 43.7629 78.2918C43.5976 77.6141 42.9278 77.1987 42.268 77.371Z" fill="white"/>
<defs>
<linearGradient id="paint0_linear" x1="76.986" y1="1.88633" x2="-10.5837" y2="27.6968" gradientUnits="userSpaceOnUse">
<stop stop-color="#FFC000"/>
<stop offset="1" stop-color="#FF8A00"/>
</linearGradient>
</defs>
</svg>
