<svg width="114" height="21" viewBox="0 0 114 21" fill="none" xmlns="http://www.w3.org/2000/svg">
<path d="M10.1394 21C15.7393 21 20.2788 16.299 20.2788 10.5C20.2788 4.70101 15.7393 0 10.1394 0C4.53957 0 0 4.70101 0 10.5C0 16.299 4.53957 21 10.1394 21Z" fill="#272EAE"/>
<path d="M9.15061 16.4595V11.3824H7.39905V9.36491H9.15061V7.77528C9.15061 6.04819 10.2376 5.10815 11.8248 5.10815C12.5852 5.10815 13.2384 5.16358 13.4279 5.18797V6.99266H12.3272C11.464 6.99266 11.2972 7.39173 11.2972 7.97481V9.36491H13.2452L12.978 11.3824H11.2972V16.4595" fill="white"/>
<mask id="mask0" mask-type="alpha" maskUnits="userSpaceOnUse" x="7" y="5" width="7" height="12">
<path d="M9.15061 16.4595V11.3824H7.39905V9.36491H9.15061V7.77528C9.15061 6.04819 10.2376 5.10815 11.8248 5.10815C12.5852 5.10815 13.2384 5.16358 13.4279 5.18797V6.99266H12.3272C11.464 6.99266 11.2972 7.39173 11.2972 7.97481V9.36491H13.2452L12.978 11.3824H11.2972V16.4595" fill="white"/>
</mask>
<g mask="url(#mask0)">
</g>
<path d="M41.3797 21C46.9796 21 51.5191 16.299 51.5191 10.5C51.5191 4.70101 46.9796 0 41.3797 0C35.7799 0 31.2403 4.70101 31.2403 10.5C31.2403 16.299 35.7799 21 41.3797 21Z" fill="#1590D8"/>
<path d="M46.008 8.4717C46.015 8.57253 46.015 8.67339 46.015 8.77422C46.015 11.8497 43.7545 15.3934 39.623 15.3934C38.3502 15.3934 37.1678 15.0117 36.1732 14.3491C36.3541 14.3707 36.5279 14.3779 36.7157 14.3779C37.766 14.3779 38.7328 14.0105 39.5048 13.3839C38.5171 13.3623 37.6895 12.6925 37.4043 11.7705C37.5434 11.7921 37.6825 11.8065 37.8286 11.8065C38.0303 11.8065 38.232 11.7777 38.4198 11.7273C37.3904 11.5112 36.6183 10.5749 36.6183 9.44406V9.41526C36.9174 9.58813 37.2652 9.69616 37.6338 9.71055C37.0287 9.29279 36.6323 8.57974 36.6323 7.77304C36.6323 7.34089 36.7435 6.94474 36.9383 6.59902C38.0442 8.01073 39.7065 8.93265 41.5705 9.0335C41.5357 8.86064 41.5149 8.68059 41.5149 8.50052C41.5149 7.21844 42.5164 6.17407 43.7614 6.17407C44.4082 6.17407 44.9925 6.45497 45.4029 6.90874C45.9106 6.80791 46.3974 6.61343 46.8287 6.34694C46.6617 6.88715 46.307 7.34091 45.841 7.629C46.2931 7.5786 46.7313 7.44893 47.1347 7.26888C46.8287 7.72983 46.4462 8.14036 46.008 8.4717Z" fill="white"/>
<mask id="mask1" mask-type="alpha" maskUnits="userSpaceOnUse" x="36" y="6" width="12" height="10">
<path d="M46.008 8.4717C46.015 8.57253 46.015 8.67339 46.015 8.77422C46.015 11.8497 43.7545 15.3934 39.623 15.3934C38.3502 15.3934 37.1678 15.0117 36.1732 14.3491C36.3541 14.3707 36.5279 14.3779 36.7157 14.3779C37.766 14.3779 38.7328 14.0105 39.5048 13.3839C38.5171 13.3623 37.6895 12.6925 37.4043 11.7705C37.5434 11.7921 37.6825 11.8065 37.8286 11.8065C38.0303 11.8065 38.232 11.7777 38.4198 11.7273C37.3904 11.5112 36.6183 10.5749 36.6183 9.44406V9.41526C36.9174 9.58813 37.2652 9.69616 37.6338 9.71055C37.0287 9.29279 36.6323 8.57974 36.6323 7.77304C36.6323 7.34089 36.7435 6.94474 36.9383 6.59902C38.0442 8.01073 39.7065 8.93265 41.5705 9.0335C41.5357 8.86064 41.5149 8.68059 41.5149 8.50052C41.5149 7.21844 42.5164 6.17407 43.7614 6.17407C44.4082 6.17407 44.9925 6.45497 45.4029 6.90874C45.9106 6.80791 46.3974 6.61343 46.8287 6.34694C46.6617 6.88715 46.307 7.34091 45.841 7.629C46.2931 7.5786 46.7313 7.44893 47.1347 7.26888C46.8287 7.72983 46.4462 8.14036 46.008 8.4717Z" fill="white"/>
</mask>
<g mask="url(#mask1)">
</g>
<path d="M72.62 21C78.2198 21 82.7594 16.299 82.7594 10.5C82.7594 4.70101 78.2198 0 72.62 0C67.0201 0 62.4805 4.70101 62.4805 10.5C62.4805 16.299 67.0201 21 72.62 21Z" fill="#D0021B"/>
<path fill-rule="evenodd" clip-rule="evenodd" d="M76.4068 7.18182C76.854 7.30795 77.2061 7.6796 77.3257 8.15151C77.5428 9.00685 77.5428 10.7915 77.5428 10.7915C77.5428 10.7915 77.5428 12.5761 77.3257 13.4314C77.2061 13.9033 76.854 14.2595 76.4068 14.3856C75.5963 14.6148 72.3463 14.6148 72.3463 14.6148C72.3463 14.6148 69.0962 14.6148 68.2857 14.3856C67.8385 14.2595 67.4864 13.9033 67.3668 13.4314C67.1497 12.5761 67.1497 10.7915 67.1497 10.7915C67.1497 10.7915 67.1497 9.00685 67.3668 8.15151C67.4864 7.6796 67.8385 7.30797 68.2857 7.18182C69.0962 6.95264 72.3463 6.95264 72.3463 6.95264C72.3463 6.95264 75.5963 6.95264 76.4068 7.18182ZM71.283 9.17105V12.4116L73.9994 10.7914L71.283 9.17105Z" fill="white"/>
<mask id="mask2" mask-type="alpha" maskUnits="userSpaceOnUse" x="67" y="6" width="11" height="9">
<path fill-rule="evenodd" clip-rule="evenodd" d="M76.4068 7.18182C76.854 7.30795 77.2061 7.6796 77.3257 8.15151C77.5428 9.00685 77.5428 10.7915 77.5428 10.7915C77.5428 10.7915 77.5428 12.5761 77.3257 13.4314C77.2061 13.9033 76.854 14.2595 76.4068 14.3856C75.5963 14.6148 72.3463 14.6148 72.3463 14.6148C72.3463 14.6148 69.0962 14.6148 68.2857 14.3856C67.8385 14.2595 67.4864 13.9033 67.3668 13.4314C67.1497 12.5761 67.1497 10.7915 67.1497 10.7915C67.1497 10.7915 67.1497 9.00685 67.3668 8.15151C67.4864 7.6796 67.8385 7.30797 68.2857 7.18182C69.0962 6.95264 72.3463 6.95264 72.3463 6.95264C72.3463 6.95264 75.5963 6.95264 76.4068 7.18182ZM71.283 9.17105V12.4116L73.9994 10.7914L71.283 9.17105Z" fill="white"/>
</mask>
<g mask="url(#mask2)">
</g>
<path d="M103.861 21C109.461 21 114 16.299 114 10.5C114 4.70101 109.461 0 103.861 0C98.2609 0 93.7213 4.70101 93.7213 10.5C93.7213 16.299 98.2609 21 103.861 21Z" fill="#F53E6A"/>
<path fill-rule="evenodd" clip-rule="evenodd" d="M104.135 4.71802C101.207 4.71802 98.8254 7.18454 98.8254 10.2163C98.8254 13.2481 101.207 15.7146 104.135 15.7146C107.063 15.7146 109.444 13.2481 109.444 10.2163C109.444 7.18454 107.063 4.71802 104.135 4.71802ZM107.645 7.25354C108.277 8.0527 108.66 9.07058 108.67 10.1791C108.52 10.1463 107.021 9.83138 105.512 10.0279C105.388 9.71661 105.272 9.44276 105.113 9.1053C106.79 8.39635 107.55 7.38747 107.645 7.25354ZM104.765 8.40699C106.377 7.78104 107.06 6.83083 107.141 6.71051C106.026 5.68581 104.511 5.29864 103.072 5.65765C103.198 5.83147 104.021 6.99303 104.765 8.40699ZM102.207 5.9732C102.326 6.143 103.137 7.30601 103.888 8.6893C101.767 9.27267 99.8984 9.26427 99.6956 9.2615C99.9896 7.80416 100.938 6.59293 102.207 5.9732ZM99.6022 10.0799C99.6008 10.1276 99.5998 10.1754 99.5998 10.2234C99.5998 11.4297 100.041 12.531 100.766 13.3636C101.501 12.0604 102.991 10.6869 104.631 10.2086C104.517 9.94176 104.393 9.67467 104.263 9.41155C101.998 10.1134 99.8006 10.0841 99.6022 10.0799ZM101.351 13.9286C101.825 12.9257 103.111 11.6312 104.939 10.9853C105.576 12.6987 105.839 14.1347 105.906 14.5467C104.448 15.19 102.695 15.0135 101.351 13.9286ZM105.788 10.7683C106.381 12.4562 106.622 13.8311 106.669 14.1168C107.686 13.4043 108.411 12.2758 108.613 10.969C108.458 10.9183 107.209 10.5327 105.788 10.7683Z" fill="white"/>
<mask id="mask3" mask-type="alpha" maskUnits="userSpaceOnUse" x="98" y="4" width="12" height="12">
<path fill-rule="evenodd" clip-rule="evenodd" d="M104.135 4.71802C101.207 4.71802 98.8254 7.18454 98.8254 10.2163C98.8254 13.2481 101.207 15.7146 104.135 15.7146C107.063 15.7146 109.444 13.2481 109.444 10.2163C109.444 7.18454 107.063 4.71802 104.135 4.71802ZM107.645 7.25354C108.277 8.0527 108.66 9.07058 108.67 10.1791C108.52 10.1463 107.021 9.83138 105.512 10.0279C105.388 9.71661 105.272 9.44276 105.113 9.1053C106.79 8.39635 107.55 7.38747 107.645 7.25354ZM104.765 8.40699C106.377 7.78104 107.06 6.83083 107.141 6.71051C106.026 5.68581 104.511 5.29864 103.072 5.65765C103.198 5.83147 104.021 6.99303 104.765 8.40699ZM102.207 5.9732C102.326 6.143 103.137 7.30601 103.888 8.6893C101.767 9.27267 99.8984 9.26427 99.6956 9.2615C99.9896 7.80416 100.938 6.59293 102.207 5.9732ZM99.6022 10.0799C99.6008 10.1276 99.5998 10.1754 99.5998 10.2234C99.5998 11.4297 100.041 12.531 100.766 13.3636C101.501 12.0604 102.991 10.6869 104.631 10.2086C104.517 9.94176 104.393 9.67467 104.263 9.41155C101.998 10.1134 99.8006 10.0841 99.6022 10.0799ZM101.351 13.9286C101.825 12.9257 103.111 11.6312 104.939 10.9853C105.576 12.6987 105.839 14.1347 105.906 14.5467C104.448 15.19 102.695 15.0135 101.351 13.9286ZM105.788 10.7683C106.381 12.4562 106.622 13.8311 106.669 14.1168C107.686 13.4043 108.411 12.2758 108.613 10.969C108.458 10.9183 107.209 10.5327 105.788 10.7683Z" fill="white"/>
</mask>
<g mask="url(#mask3)">
</g>
</svg>
